<svg width="24" height="24" viewBox="0 0 24 24" fill="none" xmlns="http://www.w3.org/2000/svg">
<path fill-rule="evenodd" clip-rule="evenodd" d="M2 19.5V4.5C2 3.119 3.119 2 4.5 2H19.5C20.88 2 22 3.119 22 4.5V19.5C22 20.163 21.736 20.799 21.267 21.268C20.798 21.736 20.163 22 19.5 22C16.11 22 7.89 22 4.5 22C3.837 22 3.20103 21.736 2.73203 21.268C2.26303 20.799 2 20.163 2 19.5ZM20 10H4V19.5C4 19.632 4.052 19.76 4.146 19.853C4.24 19.947 4.367 20 4.5 20H19.5C19.632 20 19.759 19.947 19.853 19.853C19.947 19.76 20 19.632 20 19.5V10ZM7.13101 4H4.5C4.223 4 4 4.224 4 4.5V8H7.13101L6.168 6.55501C5.944 6.21901 5.944 5.78101 6.168 5.44501L7.13101 4ZM8.20102 6L9.535 8H11.631L10.668 6.55501C10.444 6.21901 10.444 5.78101 10.668 5.44501L11.631 4H9.535L8.20102 6ZM12.701 6L14.035 8H16.131L15.168 6.55501C14.944 6.21901 14.944 5.78101 15.168 5.44501L16.131 4H14.035L12.701 6ZM17.201 6L18.535 8H20V4.5C20 4.224 19.776 4 19.5 4H18.535L17.201 6Z" fill="#969BA0"/>
</svg>
